%YAML 1.1
%TAG !u! tag:unity3d.com,2011:
--- !u!29 &1
OcclusionCullingSettings:
  m_ObjectHideFlags: 0
  serializedVersion: 2
  m_OcclusionBakeSettings:
    smallestOccluder: 5
    smallestHole: 0.25
    backfaceThreshold: 100
  m_SceneGUID: 00000000000000000000000000000000
  m_OcclusionCullingData: {fileID: 0}
--- !u!104 &2
RenderSettings:
  m_ObjectHideFlags: 0
  serializedVersion: 9
  m_Fog: 0
  m_FogColor: {r: 0.5, g: 0.5, b: 0.5, a: 1}
  m_FogMode: 3
  m_FogDensity: 0.01
  m_LinearFogStart: 0
  m_LinearFogEnd: 300
  m_AmbientSkyColor: {r: 0.212, g: 0.227, b: 0.259, a: 1}
  m_AmbientEquatorColor: {r: 0.114, g: 0.125, b: 0.133, a: 1}
  m_AmbientGroundColor: {r: 0.047, g: 0.043, b: 0.035, a: 1}
  m_AmbientIntensity: 1
  m_AmbientMode: 3
  m_SubtractiveShadowColor: {r: 0.42, g: 0.478, b: 0.627, a: 1}
  m_SkyboxMaterial: {fileID: 0}
  m_HaloStrength: 0.5
  m_FlareStrength: 1
  m_FlareFadeSpeed: 3
  m_HaloTexture: {fileID: 0}
  m_SpotCookie: {fileID: 10001, guid: 0000000000000000e000000000000000, type: 0}
  m_DefaultReflectionMode: 0
  m_DefaultReflectionResolution: 128
  m_ReflectionBounces: 1
  m_ReflectionIntensity: 1
  m_CustomReflection: {fileID: 0}
  m_Sun: {fileID: 0}
  m_IndirectSpecularColor: {r: 0, g: 0, b: 0, a: 1}
  m_UseRadianceAmbientProbe: 0
--- !u!157 &3
LightmapSettings:
  m_ObjectHideFlags: 0
  serializedVersion: 11
  m_GIWorkflowMode: 1
  m_GISettings:
    serializedVersion: 2
    m_BounceScale: 1
    m_IndirectOutputScale: 1
    m_AlbedoBoost: 1
    m_EnvironmentLightingMode: 0
    m_EnableBakedLightmaps: 0
    m_EnableRealtimeLightmaps: 0
  m_LightmapEditorSettings:
    serializedVersion: 10
    m_Resolution: 2
    m_BakeResolution: 40
    m_AtlasSize: 1024
    m_AO: 0
    m_AOMaxDistance: 1
    m_CompAOExponent: 1
    m_CompAOExponentDirect: 0
    m_Padding: 2
    m_LightmapParameters: {fileID: 0}
    m_LightmapsBakeMode: 1
    m_TextureCompression: 1
    m_FinalGather: 0
    m_FinalGatherFiltering: 1
    m_FinalGatherRayCount: 256
    m_ReflectionCompression: 2
    m_MixedBakeMode: 2
    m_BakeBackend: 1
    m_PVRSampling: 1
    m_PVRDirectSampleCount: 32
    m_PVRSampleCount: 500
    m_PVRBounces: 2
    m_PVRFilterTypeDirect: 0
    m_PVRFilterTypeIndirect: 0
    m_PVRFilterTypeAO: 0
    m_PVRFilteringMode: 1
    m_PVRCulling: 1
    m_PVRFilteringGaussRadiusDirect: 1
    m_PVRFilteringGaussRadiusIndirect: 5
    m_PVRFilteringGaussRadiusAO: 2
    m_PVRFilteringAtrousPositionSigmaDirect: 0.5
    m_PVRFilteringAtrousPositionSigmaIndirect: 2
    m_PVRFilteringAtrousPositionSigmaAO: 1
    m_ShowResolutionOverlay: 1
  m_LightingDataAsset: {fileID: 0}
  m_UseShadowmask: 1
--- !u!196 &4
NavMeshSettings:
  serializedVersion: 2
  m_ObjectHideFlags: 0
  m_BuildSettings:
    serializedVersion: 2
    agentTypeID: 0
    agentRadius: 0.5
    agentHeight: 2
    agentSlope: 45
    agentClimb: 0.4
    ledgeDropHeight: 0
    maxJumpAcrossDistance: 0
    minRegionArea: 2
    manualCellSize: 0
    cellSize: 0.16666667
    manualTileSize: 0
    tileSize: 256
    accuratePlacement: 0
    debug:
      m_Flags: 0
  m_NavMeshData: {fileID: 0}
--- !u!114 &131028698 stripped
MonoBehaviour:
  m_CorrespondingSourceObject: {fileID: 1282983457956165796, guid: 24872288006ac4539b0ec3ccd3060ece,
    type: 3}
  m_PrefabInstance: {fileID: 189015685}
  m_PrefabAsset: {fileID: 0}
  m_GameObject: {fileID: 0}
  m_Enabled: 1
  m_EditorHideFlags: 0
  m_Script: {fileID: 11500000, guid: 96beecbe99f0a48df880dfe6db569d79, type: 3}
  m_Name: 
  m_EditorClassIdentifier: 
--- !u!1001 &189015685
PrefabInstance:
  m_ObjectHideFlags: 0
  serializedVersion: 2
  m_Modification:
    m_TransformParent: {fileID: 0}
    m_Modifications:
    - target: {fileID: 1282983457956165797, guid: 24872288006ac4539b0ec3ccd3060ece,
        type: 3}
      propertyPath: m_LocalPosition.x
      value: 0
      objectReference: {fileID: 0}
    - target: {fileID: 1282983457956165797, guid: 24872288006ac4539b0ec3ccd3060ece,
        type: 3}
      propertyPath: m_LocalPosition.y
      value: 0
      objectReference: {fileID: 0}
    - target: {fileID: 1282983457956165797, guid: 24872288006ac4539b0ec3ccd3060ece,
        type: 3}
      propertyPath: m_LocalPosition.z
      value: 0
      objectReference: {fileID: 0}
    - target: {fileID: 1282983457956165797, guid: 24872288006ac4539b0ec3ccd3060ece,
        type: 3}
      propertyPath: m_LocalRotation.x
      value: 0
      objectReference: {fileID: 0}
    - target: {fileID: 1282983457956165797, guid: 24872288006ac4539b0ec3ccd3060ece,
        type: 3}
      propertyPath: m_LocalRotation.y
      value: 0
      objectReference: {fileID: 0}
    - target: {fileID: 1282983457956165797, guid: 24872288006ac4539b0ec3ccd3060ece,
        type: 3}
      propertyPath: m_LocalRotation.z
      value: 0
      objectReference: {fileID: 0}
    - target: {fileID: 1282983457956165797, guid: 24872288006ac4539b0ec3ccd3060ece,
        type: 3}
      propertyPath: m_LocalRotation.w
      value: 1
      objectReference: {fileID: 0}
    - target: {fileID: 1282983457956165797, guid: 24872288006ac4539b0ec3ccd3060ece,
        type: 3}
      propertyPath: m_RootOrder
      value: 3
      objectReference: {fileID: 0}
    - target: {fileID: 1282983457956165797, guid: 24872288006ac4539b0ec3ccd3060ece,
        type: 3}
      propertyPath: m_LocalEulerAnglesHint.x
      value: 0
      objectReference: {fileID: 0}
    - target: {fileID: 1282983457956165797, guid: 24872288006ac4539b0ec3ccd3060ece,
        type: 3}
      propertyPath: m_LocalEulerAnglesHint.y
      value: 0
      objectReference: {fileID: 0}
    - target: {fileID: 1282983457956165797, guid: 24872288006ac4539b0ec3ccd3060ece,
        type: 3}
      propertyPath: m_LocalEulerAnglesHint.z
      value: 0
      objectReference: {fileID: 0}
    - target: {fileID: 1282983457956165797, guid: 24872288006ac4539b0ec3ccd3060ece,
        type: 3}
      propertyPath: m_AnchoredPosition.x
      value: 0
      objectReference: {fileID: 0}
    - target: {fileID: 1282983457956165797, guid: 24872288006ac4539b0ec3ccd3060ece,
        type: 3}
      propertyPath: m_AnchoredPosition.y
      value: 0
      objectReference: {fileID: 0}
    - target: {fileID: 1282983457956165797, guid: 24872288006ac4539b0ec3ccd3060ece,
        type: 3}
      propertyPath: m_SizeDelta.x
      value: 100
      objectReference: {fileID: 0}
    - target: {fileID: 1282983457956165797, guid: 24872288006ac4539b0ec3ccd3060ece,
        type: 3}
      propertyPath: m_SizeDelta.y
      value: 100
      objectReference: {fileID: 0}
    - target: {fileID: 1282983457956165797, guid: 24872288006ac4539b0ec3ccd3060ece,
        type: 3}
      propertyPath: m_AnchorMin.x
      value: 0.5
      objectReference: {fileID: 0}
    - target: {fileID: 1282983457956165797, guid: 24872288006ac4539b0ec3ccd3060ece,
        type: 3}
      propertyPath: m_AnchorMin.y
      value: 0.5
      objectReference: {fileID: 0}
    - target: {fileID: 1282983457956165797, guid: 24872288006ac4539b0ec3ccd3060ece,
        type: 3}
      propertyPath: m_AnchorMax.x
      value: 0.5
      objectReference: {fileID: 0}
    - target: {fileID: 1282983457956165797, guid: 24872288006ac4539b0ec3ccd3060ece,
        type: 3}
      propertyPath: m_AnchorMax.y
      value: 0.5
      objectReference: {fileID: 0}
    - target: {fileID: 1282983457956165797, guid: 24872288006ac4539b0ec3ccd3060ece,
        type: 3}
      propertyPath: m_Pivot.x
      value: 0.5
      objectReference: {fileID: 0}
    - target: {fileID: 1282983457956165797, guid: 24872288006ac4539b0ec3ccd3060ece,
        type: 3}
      propertyPath: m_Pivot.y
      value: 0.5
      objectReference: {fileID: 0}
    - target: {fileID: 1282983457956165798, guid: 24872288006ac4539b0ec3ccd3060ece,
        type: 3}
      propertyPath: m_Name
      value: SceneLoader
      objectReference: {fileID: 0}
    m_RemovedComponents: []
  m_SourcePrefab: {fileID: 100100000, guid: 24872288006ac4539b0ec3ccd3060ece, type: 3}
--- !u!1 &207712233 stripped
GameObject:
  m_CorrespondingSourceObject: {fileID: 6412103568100274574, guid: 1987d6811d4a9604a9ea40314b4489c5,
    type: 3}
  m_PrefabInstance: {fileID: 5537773605379132898}
  m_PrefabAsset: {fileID: 0}
--- !u!1 &391570699
GameObject:
  m_ObjectHideFlags: 0
  m_CorrespondingSourceObject: {fileID: 0}
  m_PrefabInstance: {fileID: 0}
  m_PrefabAsset: {fileID: 0}
  serializedVersion: 6
  m_Component:
  - component: {fileID: 391570700}
  - component: {fileID: 391570702}
  - component: {fileID: 391570701}
  m_Layer: 5
  m_Name: Outline
  m_TagString: Untagged
  m_Icon: {fileID: 0}
  m_NavMeshLayer: 0
  m_StaticEditorFlags: 0
  m_IsActive: 1
--- !u!224 &391570700
RectTransform:
  m_ObjectHideFlags: 0
  m_CorrespondingSourceObject: {fileID: 0}
  m_PrefabInstance: {fileID: 0}
  m_PrefabAsset: {fileID: 0}
  m_GameObject: {fileID: 391570699}
  m_LocalRotation: {x: -0, y: -0, z: -0, w: 1}
  m_LocalPosition: {x: 0, y: 0, z: 0}
  m_LocalScale: {x: 1, y: 1, z: 1}
  m_Children: []
  m_Father: {fileID: 1957097217}
  m_RootOrder: 0
  m_LocalEulerAnglesHint: {x: 0, y: 0, z: 0}
  m_AnchorMin: {x: 0, y: 0}
  m_AnchorMax: {x: 1, y: 1}
  m_AnchoredPosition: {x: 0, y: 0}
  m_SizeDelta: {x: 0, y: 0}
  m_Pivot: {x: 0.5, y: 0.5}
--- !u!114 &391570701
MonoBehaviour:
  m_ObjectHideFlags: 0
  m_CorrespondingSourceObject: {fileID: 0}
  m_PrefabInstance: {fileID: 0}
  m_PrefabAsset: {fileID: 0}
  m_GameObject: {fileID: 391570699}
  m_Enabled: 1
  m_EditorHideFlags: 0
  m_Script: {fileID: -765806418, guid: f70555f144d8491a825f0804e09c671c, type: 3}
  m_Name: 
  m_EditorClassIdentifier: 
  m_Material: {fileID: 0}
  m_Color: {r: 0, g: 0.73333335, b: 0.92941177, a: 1}
  m_RaycastTarget: 1
  m_OnCullStateChanged:
    m_PersistentCalls:
      m_Calls: []
  m_Sprite: {fileID: 21300000, guid: 0dba7f4bcc17ba64a8acc762f75a6050, type: 3}
  m_Type: 0
  m_PreserveAspect: 0
  m_FillCenter: 1
  m_FillMethod: 4
  m_FillAmount: 1
  m_FillClockwise: 1
  m_FillOrigin: 0
  m_UseSpriteMesh: 0
--- !u!222 &391570702
CanvasRenderer:
  m_ObjectHideFlags: 0
  m_CorrespondingSourceObject: {fileID: 0}
  m_PrefabInstance: {fileID: 0}
  m_PrefabAsset: {fileID: 0}
  m_GameObject: {fileID: 391570699}
  m_CullTransparentMesh: 0
--- !u!1 &542363728
GameObject:
  m_ObjectHideFlags: 0
  m_CorrespondingSourceObject: {fileID: 0}
  m_PrefabInstance: {fileID: 0}
  m_PrefabAsset: {fileID: 0}
  serializedVersion: 6
  m_Component:
  - component: {fileID: 542363732}
  - component: {fileID: 542363731}
  - component: {fileID: 542363730}
  - component: {fileID: 542363729}
  m_Layer: 5
  m_Name: Canvas
  m_TagString: Untagged
  m_Icon: {fileID: 0}
  m_NavMeshLayer: 0
  m_StaticEditorFlags: 0
  m_IsActive: 1
--- !u!114 &542363729
MonoBehaviour:
  m_ObjectHideFlags: 0
  m_CorrespondingSourceObject: {fileID: 0}
  m_PrefabInstance: {fileID: 0}
  m_PrefabAsset: {fileID: 0}
  m_GameObject: {fileID: 542363728}
  m_Enabled: 1
  m_EditorHideFlags: 0
  m_Script: {fileID: 1301386320, guid: f70555f144d8491a825f0804e09c671c, type: 3}
  m_Name: 
  m_EditorClassIdentifier: 
  m_IgnoreReversedGraphics: 1
  m_BlockingObjects: 0
  m_BlockingMask:
    serializedVersion: 2
    m_Bits: 4294967295
--- !u!114 &542363730
MonoBehaviour:
  m_ObjectHideFlags: 0
  m_CorrespondingSourceObject: {fileID: 0}
  m_PrefabInstance: {fileID: 0}
  m_PrefabAsset: {fileID: 0}
  m_GameObject: {fileID: 542363728}
  m_Enabled: 1
  m_EditorHideFlags: 0
  m_Script: {fileID: 1980459831, guid: f70555f144d8491a825f0804e09c671c, type: 3}
  m_Name: 
  m_EditorClassIdentifier: 
  m_UiScaleMode: 0
  m_ReferencePixelsPerUnit: 100
  m_ScaleFactor: 1
  m_ReferenceResolution: {x: 800, y: 600}
  m_ScreenMatchMode: 0
  m_MatchWidthOrHeight: 0
  m_PhysicalUnit: 3
  m_FallbackScreenDPI: 96
  m_DefaultSpriteDPI: 96
  m_DynamicPixelsPerUnit: 1
--- !u!223 &542363731
Canvas:
  m_ObjectHideFlags: 0
  m_CorrespondingSourceObject: {fileID: 0}
  m_PrefabInstance: {fileID: 0}
  m_PrefabAsset: {fileID: 0}
  m_GameObject: {fileID: 542363728}
  m_Enabled: 1
  serializedVersion: 3
  m_RenderMode: 0
  m_Camera: {fileID: 0}
  m_PlaneDistance: 100
  m_PixelPerfect: 0
  m_ReceivesEvents: 1
  m_OverrideSorting: 0
  m_OverridePixelPerfect: 0
  m_SortingBucketNormalizedSize: 0
  m_AdditionalShaderChannelsFlag: 25
  m_SortingLayerID: 0
  m_SortingOrder: 0
  m_TargetDisplay: 0
--- !u!224 &542363732
RectTransform:
  m_ObjectHideFlags: 0
  m_CorrespondingSourceObject: {fileID: 0}
  m_PrefabInstance: {fileID: 0}
  m_PrefabAsset: {fileID: 0}
  m_GameObject: {fileID: 542363728}
  m_LocalRotation: {x: 0, y: 0, z: 0, w: 1}
  m_LocalPosition: {x: 0, y: 0, z: 0}
  m_LocalScale: {x: 0, y: 0, z: 0}
  m_Children:
  - {fileID: 1481583381}
  - {fileID: 7869815679233269930}
  - {fileID: 987473662}
  - {fileID: 1957097217}
  - {fileID: 1342877899}
  - {fileID: 986750882}
  m_Father: {fileID: 0}
  m_RootOrder: 1
  m_LocalEulerAnglesHint: {x: 0, y: 0, z: 0}
  m_AnchorMin: {x: 0, y: 0}
  m_AnchorMax: {x: 0, y: 0}
  m_AnchoredPosition: {x: 0, y: 0}
  m_SizeDelta: {x: 0, y: 0}
  m_Pivot: {x: 0, y: 0}
--- !u!1 &615581138
GameObject:
  m_ObjectHideFlags: 0
  m_CorrespondingSourceObject: {fileID: 0}
  m_PrefabInstance: {fileID: 0}
  m_PrefabAsset: {fileID: 0}
  serializedVersion: 6
  m_Component:
  - component: {fileID: 615581141}
  - component: {fileID: 615581140}
  - component: {fileID: 615581139}
  m_Layer: 0
  m_Name: Main Camera
  m_TagString: MainCamera
  m_Icon: {fileID: 0}
  m_NavMeshLayer: 0
  m_StaticEditorFlags: 0
  m_IsActive: 1
--- !u!81 &615581139
AudioListener:
  m_ObjectHideFlags: 0
  m_CorrespondingSourceObject: {fileID: 0}
  m_PrefabInstance: {fileID: 0}
  m_PrefabAsset: {fileID: 0}
  m_GameObject: {fileID: 615581138}
  m_Enabled: 1
--- !u!20 &615581140
Camera:
  m_ObjectHideFlags: 0
  m_CorrespondingSourceObject: {fileID: 0}
  m_PrefabInstance: {fileID: 0}
  m_PrefabAsset: {fileID: 0}
  m_GameObject: {fileID: 615581138}
  m_Enabled: 1
  serializedVersion: 2
  m_ClearFlags: 1
  m_BackGroundColor: {r: 0.94509804, g: 0.96862745, b: 0.96862745, a: 0}
  m_projectionMatrixMode: 1
  m_SensorSize: {x: 36, y: 24}
  m_LensShift: {x: 0, y: 0}
  m_GateFitMode: 2
  m_FocalLength: 50
  m_NormalizedViewPortRect:
    serializedVersion: 2
    x: 0
    y: 0
    width: 1
    height: 1
  near clip plane: 0.3
  far clip plane: 1000
  field of view: 60
  orthographic: 1
  orthographic size: 5
  m_Depth: -1
  m_CullingMask:
    serializedVersion: 2
    m_Bits: 4294967295
  m_RenderingPath: -1
  m_TargetTexture: {fileID: 0}
  m_TargetDisplay: 0
  m_TargetEye: 3
  m_HDR: 1
  m_AllowMSAA: 1
  m_AllowDynamicResolution: 0
  m_ForceIntoRT: 0
  m_OcclusionCulling: 1
  m_StereoConvergence: 10
  m_StereoSeparation: 0.022
--- !u!4 &615581141
Transform:
  m_ObjectHideFlags: 0
  m_CorrespondingSourceObject: {fileID: 0}
  m_PrefabInstance: {fileID: 0}
  m_PrefabAsset: {fileID: 0}
  m_GameObject: {fileID: 615581138}
  m_LocalRotation: {x: 0, y: 0, z: 0, w: 1}
  m_LocalPosition: {x: 0, y: 0, z: -10}
  m_LocalScale: {x: 1, y: 1, z: 1}
  m_Children: []
  m_Father: {fileID: 0}
  m_RootOrder: 0
  m_LocalEulerAnglesHint: {x: 0, y: 0, z: 0}
--- !u!1 &848343627
GameObject:
  m_ObjectHideFlags: 0
  m_CorrespondingSourceObject: {fileID: 0}
  m_PrefabInstance: {fileID: 0}
  m_PrefabAsset: {fileID: 0}
  serializedVersion: 6
  m_Component:
  - component: {fileID: 848343630}
  - component: {fileID: 848343629}
  - component: {fileID: 848343628}
  m_Layer: 0
  m_Name: EventSystem
  m_TagString: Untagged
  m_Icon: {fileID: 0}
  m_NavMeshLayer: 0
  m_StaticEditorFlags: 0
  m_IsActive: 1
--- !u!114 &848343628
MonoBehaviour:
  m_ObjectHideFlags: 0
  m_CorrespondingSourceObject: {fileID: 0}
  m_PrefabInstance: {fileID: 0}
  m_PrefabAsset: {fileID: 0}
  m_GameObject: {fileID: 848343627}
  m_Enabled: 1
  m_EditorHideFlags: 0
  m_Script: {fileID: 1077351063, guid: f70555f144d8491a825f0804e09c671c, type: 3}
  m_Name: 
  m_EditorClassIdentifier: 
  m_HorizontalAxis: Horizontal
  m_VerticalAxis: Vertical
  m_SubmitButton: Submit
  m_CancelButton: Cancel
  m_InputActionsPerSecond: 10
  m_RepeatDelay: 0.5
  m_ForceModuleActive: 0
--- !u!114 &848343629
MonoBehaviour:
  m_ObjectHideFlags: 0
  m_CorrespondingSourceObject: {fileID: 0}
  m_PrefabInstance: {fileID: 0}
  m_PrefabAsset: {fileID: 0}
  m_GameObject: {fileID: 848343627}
  m_Enabled: 1
  m_EditorHideFlags: 0
  m_Script: {fileID: -619905303, guid: f70555f144d8491a825f0804e09c671c, type: 3}
  m_Name: 
  m_EditorClassIdentifier: 
  m_FirstSelected: {fileID: 0}
  m_sendNavigationEvents: 1
  m_DragThreshold: 10
--- !u!4 &848343630
Transform:
  m_ObjectHideFlags: 0
  m_CorrespondingSourceObject: {fileID: 0}
  m_PrefabInstance: {fileID: 0}
  m_PrefabAsset: {fileID: 0}
  m_GameObject: {fileID: 848343627}
  m_LocalRotation: {x: 0, y: 0, z: 0, w: 1}
  m_LocalPosition: {x: 0, y: 0, z: 0}
  m_LocalScale: {x: 1, y: 1, z: 1}
  m_Children: []
  m_Father: {fileID: 0}
  m_RootOrder: 2
  m_LocalEulerAnglesHint: {x: 0, y: 0, z: 0}
--- !u!1 &965710812
GameObject:
  m_ObjectHideFlags: 0
  m_CorrespondingSourceObject: {fileID: 0}
  m_PrefabInstance: {fileID: 0}
  m_PrefabAsset: {fileID: 0}
  serializedVersion: 6
  m_Component:
  - component: {fileID: 965710813}
  - component: {fileID: 965710815}
  - component: {fileID: 965710814}
  m_Layer: 5
  m_Name: Filled
  m_TagString: Untagged
  m_Icon: {fileID: 0}
  m_NavMeshLayer: 0
  m_StaticEditorFlags: 0
  m_IsActive: 1
--- !u!224 &965710813
RectTransform:
  m_ObjectHideFlags: 0
  m_CorrespondingSourceObject: {fileID: 0}
  m_PrefabInstance: {fileID: 0}
  m_PrefabAsset: {fileID: 0}
  m_GameObject: {fileID: 965710812}
  m_LocalRotation: {x: -0, y: -0, z: -0, w: 1}
  m_LocalPosition: {x: 0, y: 0, z: 0}
  m_LocalScale: {x: 1, y: 1, z: 1}
  m_Children: []
  m_Father: {fileID: 1957097217}
  m_RootOrder: 1
  m_LocalEulerAnglesHint: {x: 0, y: 0, z: 0}
  m_AnchorMin: {x: 0, y: 0}
  m_AnchorMax: {x: 1, y: 1}
  m_AnchoredPosition: {x: 0, y: 0}
  m_SizeDelta: {x: 0, y: 0}
  m_Pivot: {x: 0.5, y: 0.5}
--- !u!114 &965710814
MonoBehaviour:
  m_ObjectHideFlags: 0
  m_CorrespondingSourceObject: {fileID: 0}
  m_PrefabInstance: {fileID: 0}
  m_PrefabAsset: {fileID: 0}
  m_GameObject: {fileID: 965710812}
  m_Enabled: 1
  m_EditorHideFlags: 0
  m_Script: {fileID: -765806418, guid: f70555f144d8491a825f0804e09c671c, type: 3}
  m_Name: 
  m_EditorClassIdentifier: 
  m_Material: {fileID: 0}
  m_Color: {r: 0, g: 0.73333335, b: 0.92941177, a: 1}
  m_RaycastTarget: 1
  m_OnCullStateChanged:
    m_PersistentCalls:
      m_Calls: []
  m_Sprite: {fileID: 21300000, guid: c26a820b2129e2f4eb122efd27df5339, type: 3}
  m_Type: 3
  m_PreserveAspect: 0
  m_FillCenter: 1
  m_FillMethod: 4
  m_FillAmount: 0.25
  m_FillClockwise: 1
  m_FillOrigin: 2
  m_UseSpriteMesh: 0
--- !u!222 &965710815
CanvasRenderer:
  m_ObjectHideFlags: 0
  m_CorrespondingSourceObject: {fileID: 0}
  m_PrefabInstance: {fileID: 0}
  m_PrefabAsset: {fileID: 0}
  m_GameObject: {fileID: 965710812}
  m_CullTransparentMesh: 0
--- !u!1001 &986750881
PrefabInstance:
  m_ObjectHideFlags: 0
  serializedVersion: 2
  m_Modification:
    m_TransformParent: {fileID: 542363732}
    m_Modifications:
    - target: {fileID: 1071769419608606204, guid: 5e138416ca8994e9c96d60446be54584,
        type: 3}
      propertyPath: m_LocalPosition.x
      value: 0
      objectReference: {fileID: 0}
    - target: {fileID: 1071769419608606204, guid: 5e138416ca8994e9c96d60446be54584,
        type: 3}
      propertyPath: m_LocalPosition.y
      value: 0
      objectReference: {fileID: 0}
    - target: {fileID: 1071769419608606204, guid: 5e138416ca8994e9c96d60446be54584,
        type: 3}
      propertyPath: m_LocalPosition.z
      value: 0
      objectReference: {fileID: 0}
    - target: {fileID: 1071769419608606204, guid: 5e138416ca8994e9c96d60446be54584,
        type: 3}
      propertyPath: m_LocalRotation.x
      value: -0
      objectReference: {fileID: 0}
    - target: {fileID: 1071769419608606204, guid: 5e138416ca8994e9c96d60446be54584,
        type: 3}
      propertyPath: m_LocalRotation.y
      value: -0
      objectReference: {fileID: 0}
    - target: {fileID: 1071769419608606204, guid: 5e138416ca8994e9c96d60446be54584,
        type: 3}
      propertyPath: m_LocalRotation.z
      value: -0
      objectReference: {fileID: 0}
    - target: {fileID: 1071769419608606204, guid: 5e138416ca8994e9c96d60446be54584,
        type: 3}
      propertyPath: m_LocalRotation.w
      value: 1
      objectReference: {fileID: 0}
    - target: {fileID: 1071769419608606204, guid: 5e138416ca8994e9c96d60446be54584,
        type: 3}
      propertyPath: m_RootOrder
      value: 5
      objectReference: {fileID: 0}
    - target: {fileID: 1071769419608606204, guid: 5e138416ca8994e9c96d60446be54584,
        type: 3}
      propertyPath: m_LocalEulerAnglesHint.x
      value: 0
      objectReference: {fileID: 0}
    - target: {fileID: 1071769419608606204, guid: 5e138416ca8994e9c96d60446be54584,
        type: 3}
      propertyPath: m_LocalEulerAnglesHint.y
      value: 0
      objectReference: {fileID: 0}
    - target: {fileID: 1071769419608606204, guid: 5e138416ca8994e9c96d60446be54584,
        type: 3}
      propertyPath: m_LocalEulerAnglesHint.z
      value: 0
      objectReference: {fileID: 0}
    - target: {fileID: 1071769419608606204, guid: 5e138416ca8994e9c96d60446be54584,
        type: 3}
      propertyPath: m_AnchoredPosition.x
      value: 704
      objectReference: {fileID: 0}
    - target: {fileID: 1071769419608606204, guid: 5e138416ca8994e9c96d60446be54584,
        type: 3}
      propertyPath: m_AnchoredPosition.y
      value: 414
      objectReference: {fileID: 0}
    - target: {fileID: 1071769419608606204, guid: 5e138416ca8994e9c96d60446be54584,
        type: 3}
      propertyPath: m_SizeDelta.x
      value: 400
      objectReference: {fileID: 0}
    - target: {fileID: 1071769419608606204, guid: 5e138416ca8994e9c96d60446be54584,
        type: 3}
      propertyPath: m_SizeDelta.y
      value: 90
      objectReference: {fileID: 0}
    - target: {fileID: 1071769419608606204, guid: 5e138416ca8994e9c96d60446be54584,
        type: 3}
      propertyPath: m_AnchorMin.x
      value: 0.5
      objectReference: {fileID: 0}
    - target: {fileID: 1071769419608606204, guid: 5e138416ca8994e9c96d60446be54584,
        type: 3}
      propertyPath: m_AnchorMin.y
      value: 0.5
      objectReference: {fileID: 0}
    - target: {fileID: 1071769419608606204, guid: 5e138416ca8994e9c96d60446be54584,
        type: 3}
      propertyPath: m_AnchorMax.x
      value: 0.5
      objectReference: {fileID: 0}
    - target: {fileID: 1071769419608606204, guid: 5e138416ca8994e9c96d60446be54584,
        type: 3}
      propertyPath: m_AnchorMax.y
      value: 0.5
      objectReference: {fileID: 0}
    - target: {fileID: 1071769419608606204, guid: 5e138416ca8994e9c96d60446be54584,
        type: 3}
      propertyPath: m_Pivot.x
      value: 0.5
      objectReference: {fileID: 0}
    - target: {fileID: 1071769419608606204, guid: 5e138416ca8994e9c96d60446be54584,
        type: 3}
      propertyPath: m_Pivot.y
      value: 0.5
      objectReference: {fileID: 0}
    - target: {fileID: 3212435898367078201, guid: 5e138416ca8994e9c96d60446be54584,
        type: 3}
      propertyPath: m_Alpha
      value: 0
      objectReference: {fileID: 0}
    - target: {fileID: 4219459682973675951, guid: 5e138416ca8994e9c96d60446be54584,
        type: 3}
      propertyPath: m_textInfo.characterCount
      value: 0
      objectReference: {fileID: 0}
    - target: {fileID: 4219459682973675951, guid: 5e138416ca8994e9c96d60446be54584,
        type: 3}
      propertyPath: m_textInfo.spaceCount
      value: 0
      objectReference: {fileID: 0}
    - target: {fileID: 4219459682973675951, guid: 5e138416ca8994e9c96d60446be54584,
        type: 3}
      propertyPath: m_textInfo.wordCount
      value: 0
      objectReference: {fileID: 0}
    - target: {fileID: 4219459682973675951, guid: 5e138416ca8994e9c96d60446be54584,
        type: 3}
      propertyPath: m_textInfo.lineCount
      value: 0
      objectReference: {fileID: 0}
    - target: {fileID: 4219459682973675951, guid: 5e138416ca8994e9c96d60446be54584,
        type: 3}
      propertyPath: m_textInfo.pageCount
      value: 0
      objectReference: {fileID: 0}
    - target: {fileID: 4827709224040122933, guid: 5e138416ca8994e9c96d60446be54584,
        type: 3}
      propertyPath: m_textInfo.characterCount
      value: 0
      objectReference: {fileID: 0}
    - target: {fileID: 4827709224040122933, guid: 5e138416ca8994e9c96d60446be54584,
        type: 3}
      propertyPath: m_textInfo.spaceCount
      value: 0
      objectReference: {fileID: 0}
    - target: {fileID: 4827709224040122933, guid: 5e138416ca8994e9c96d60446be54584,
        type: 3}
      propertyPath: m_textInfo.wordCount
      value: 0
      objectReference: {fileID: 0}
    - target: {fileID: 4827709224040122933, guid: 5e138416ca8994e9c96d60446be54584,
        type: 3}
      propertyPath: m_textInfo.lineCount
      value: 0
      objectReference: {fileID: 0}
    - target: {fileID: 4827709224040122933, guid: 5e138416ca8994e9c96d60446be54584,
        type: 3}
      propertyPath: m_textInfo.pageCount
      value: 0
      objectReference: {fileID: 0}
    - target: {fileID: 6534843013784296316, guid: 5e138416ca8994e9c96d60446be54584,
        type: 3}
      propertyPath: m_AnchoredPosition.x
      value: 200
      objectReference: {fileID: 0}
    - target: {fileID: 6534843013784296316, guid: 5e138416ca8994e9c96d60446be54584,
        type: 3}
      propertyPath: m_SizeDelta.x
      value: 364
      objectReference: {fileID: 0}
    - target: {fileID: 6534843013784296316, guid: 5e138416ca8994e9c96d60446be54584,
        type: 3}
      propertyPath: m_AnchorMin.y
      value: 0
      objectReference: {fileID: 0}
    - target: {fileID: 6534843013784296316, guid: 5e138416ca8994e9c96d60446be54584,
        type: 3}
      propertyPath: m_AnchorMax.y
      value: 0
      objectReference: {fileID: 0}
    - target: {fileID: 6534843013784296316, guid: 5e138416ca8994e9c96d60446be54584,
        type: 3}
      propertyPath: m_AnchoredPosition.y
      value: 0
      objectReference: {fileID: 0}
    - target: {fileID: 6534843013784296316, guid: 5e138416ca8994e9c96d60446be54584,
        type: 3}
      propertyPath: m_SizeDelta.y
      value: 0
      objectReference: {fileID: 0}
    - target: {fileID: 7395373939507984467, guid: 5e138416ca8994e9c96d60446be54584,
        type: 3}
      propertyPath: m_SizeDelta.y
      value: 0
      objectReference: {fileID: 0}
    - target: {fileID: 7533295311992976896, guid: 5e138416ca8994e9c96d60446be54584,
        type: 3}
      propertyPath: m_Name
      value: Sliding Notification
      objectReference: {fileID: 0}
    m_RemovedComponents: []
  m_SourcePrefab: {fileID: 100100000, guid: 5e138416ca8994e9c96d60446be54584, type: 3}
--- !u!224 &986750882 stripped
RectTransform:
  m_CorrespondingSourceObject: {fileID: 1071769419608606204, guid: 5e138416ca8994e9c96d60446be54584,
    type: 3}
  m_PrefabInstance: {fileID: 986750881}
  m_PrefabAsset: {fileID: 0}
--- !u!114 &986750883 stripped
MonoBehaviour:
  m_CorrespondingSourceObject: {fileID: 7089420678081170718, guid: 5e138416ca8994e9c96d60446be54584,
    type: 3}
  m_PrefabInstance: {fileID: 986750881}
  m_PrefabAsset: {fileID: 0}
  m_GameObject: {fileID: 0}
  m_Enabled: 1
  m_EditorHideFlags: 0
  m_Script: {fileID: 11500000, guid: 4b4bbdcf873a4164eabf85f0d7820717, type: 3}
  m_Name: 
  m_EditorClassIdentifier: 
--- !u!224 &987473662 stripped
RectTransform:
  m_CorrespondingSourceObject: {fileID: 6412103567039053067, guid: 1987d6811d4a9604a9ea40314b4489c5,
    type: 3}
  m_PrefabInstance: {fileID: 5537773605379132898}
  m_PrefabAsset: {fileID: 0}
--- !u!224 &1342877899 stripped
RectTransform:
  m_CorrespondingSourceObject: {fileID: 6073242608763701515, guid: 350d6ca9afd2d744aa554aedef25b0da,
    type: 3}
  m_PrefabInstance: {fileID: 6198623367730910108}
  m_PrefabAsset: {fileID: 0}
--- !u!114 &1342877900 stripped
MonoBehaviour:
  m_CorrespondingSourceObject: {fileID: 6073242608763701514, guid: 350d6ca9afd2d744aa554aedef25b0da,
    type: 3}
  m_PrefabInstance: {fileID: 6198623367730910108}
  m_PrefabAsset: {fileID: 0}
  m_GameObject: {fileID: 0}
  m_Enabled: 1
  m_EditorHideFlags: 0
  m_Script: {fileID: 708705254, guid: f70555f144d8491a825f0804e09c671c, type: 3}
  m_Name: 
  m_EditorClassIdentifier: 
--- !u!1001 &1481583380
PrefabInstance:
  m_ObjectHideFlags: 0
  serializedVersion: 2
  m_Modification:
    m_TransformParent: {fileID: 542363732}
    m_Modifications:
    - target: {fileID: 1309095409023833443, guid: cd66bc30bdea0bc4886595d06443dff4,
        type: 3}
      propertyPath: m_textInfo.characterCount
      value: 6
      objectReference: {fileID: 0}
    - target: {fileID: 1309095409023833443, guid: cd66bc30bdea0bc4886595d06443dff4,
        type: 3}
      propertyPath: m_textInfo.wordCount
      value: 1
      objectReference: {fileID: 0}
    - target: {fileID: 1309095409023833443, guid: cd66bc30bdea0bc4886595d06443dff4,
        type: 3}
      propertyPath: m_textInfo.lineCount
      value: 1
      objectReference: {fileID: 0}
    - target: {fileID: 1309095409023833443, guid: cd66bc30bdea0bc4886595d06443dff4,
        type: 3}
      propertyPath: m_textInfo.pageCount
      value: 1
      objectReference: {fileID: 0}
    - target: {fileID: 1309095409023833443, guid: cd66bc30bdea0bc4886595d06443dff4,
        type: 3}
      propertyPath: m_text
      value: 'Ready

'
      objectReference: {fileID: 0}
    - target: {fileID: 1309095409023833443, guid: cd66bc30bdea0bc4886595d06443dff4,
        type: 3}
      propertyPath: m_textInfo.spaceCount
      value: 1
      objectReference: {fileID: 0}
    - target: {fileID: 2489423680137607303, guid: cd66bc30bdea0bc4886595d06443dff4,
        type: 3}
      propertyPath: m_LocalPosition.x
      value: 0
      objectReference: {fileID: 0}
    - target: {fileID: 2489423680137607303, guid: cd66bc30bdea0bc4886595d06443dff4,
        type: 3}
      propertyPath: m_LocalPosition.y
      value: 0
      objectReference: {fileID: 0}
    - target: {fileID: 2489423680137607303, guid: cd66bc30bdea0bc4886595d06443dff4,
        type: 3}
      propertyPath: m_LocalPosition.z
      value: 0
      objectReference: {fileID: 0}
    - target: {fileID: 2489423680137607303, guid: cd66bc30bdea0bc4886595d06443dff4,
        type: 3}
      propertyPath: m_LocalRotation.x
      value: 0
      objectReference: {fileID: 0}
    - target: {fileID: 2489423680137607303, guid: cd66bc30bdea0bc4886595d06443dff4,
        type: 3}
      propertyPath: m_LocalRotation.y
      value: 0
      objectReference: {fileID: 0}
    - target: {fileID: 2489423680137607303, guid: cd66bc30bdea0bc4886595d06443dff4,
        type: 3}
      propertyPath: m_LocalRotation.z
      value: 0
      objectReference: {fileID: 0}
    - target: {fileID: 2489423680137607303, guid: cd66bc30bdea0bc4886595d06443dff4,
        type: 3}
      propertyPath: m_LocalRotation.w
      value: 1
      objectReference: {fileID: 0}
    - target: {fileID: 2489423680137607303, guid: cd66bc30bdea0bc4886595d06443dff4,
        type: 3}
      propertyPath: m_RootOrder
      value: 0
      objectReference: {fileID: 0}
    - target: {fileID: 2489423680137607303, guid: cd66bc30bdea0bc4886595d06443dff4,
        type: 3}
      propertyPath: m_LocalEulerAnglesHint.x
      value: 0
      objectReference: {fileID: 0}
    - target: {fileID: 2489423680137607303, guid: cd66bc30bdea0bc4886595d06443dff4,
        type: 3}
      propertyPath: m_LocalEulerAnglesHint.y
      value: 0
      objectReference: {fileID: 0}
    - target: {fileID: 2489423680137607303, guid: cd66bc30bdea0bc4886595d06443dff4,
        type: 3}
      propertyPath: m_LocalEulerAnglesHint.z
      value: 0
      objectReference: {fileID: 0}
    - target: {fileID: 2489423680137607303, guid: cd66bc30bdea0bc4886595d06443dff4,
        type: 3}
      propertyPath: m_AnchoredPosition.x
      value: 1664
      objectReference: {fileID: 0}
    - target: {fileID: 2489423680137607303, guid: cd66bc30bdea0bc4886595d06443dff4,
        type: 3}
      propertyPath: m_AnchoredPosition.y
      value: 128.1
      objectReference: {fileID: 0}
    - target: {fileID: 2489423680137607303, guid: cd66bc30bdea0bc4886595d06443dff4,
        type: 3}
      propertyPath: m_SizeDelta.x
      value: 379.7
      objectReference: {fileID: 0}
    - target: {fileID: 2489423680137607303, guid: cd66bc30bdea0bc4886595d06443dff4,
        type: 3}
      propertyPath: m_SizeDelta.y
      value: 62.4
      objectReference: {fileID: 0}
    - target: {fileID: 2489423680137607303, guid: cd66bc30bdea0bc4886595d06443dff4,
        type: 3}
      propertyPath: m_AnchorMin.x
      value: 0
      objectReference: {fileID: 0}
    - target: {fileID: 2489423680137607303, guid: cd66bc30bdea0bc4886595d06443dff4,
        type: 3}
      propertyPath: m_AnchorMin.y
      value: 0
      objectReference: {fileID: 0}
    - target: {fileID: 2489423680137607303, guid: cd66bc30bdea0bc4886595d06443dff4,
        type: 3}
      propertyPath: m_AnchorMax.x
      value: 0
      objectReference: {fileID: 0}
    - target: {fileID: 2489423680137607303, guid: cd66bc30bdea0bc4886595d06443dff4,
        type: 3}
      propertyPath: m_AnchorMax.y
      value: 0
      objectReference: {fileID: 0}
    - target: {fileID: 2489423680137607303, guid: cd66bc30bdea0bc4886595d06443dff4,
        type: 3}
      propertyPath: m_Pivot.x
      value: 0.5
      objectReference: {fileID: 0}
    - target: {fileID: 2489423680137607303, guid: cd66bc30bdea0bc4886595d06443dff4,
        type: 3}
      propertyPath: m_Pivot.y
      value: 0.5
      objectReference: {fileID: 0}
    - target: {fileID: 2751216871153220435, guid: cd66bc30bdea0bc4886595d06443dff4,
        type: 3}
      propertyPath: m_Enabled
      value: 1
      objectReference: {fileID: 0}
    - target: {fileID: 4937188935239999125, guid: cd66bc30bdea0bc4886595d06443dff4,
        type: 3}
      propertyPath: m_Name
      value: BtnReady
      objectReference: {fileID: 0}
    - target: {fileID: 5014583728418499630, guid: cd66bc30bdea0bc4886595d06443dff4,
        type: 3}
      propertyPath: useCustomContent
      value: 1
      objectReference: {fileID: 0}
    - target: {fileID: 5014583728418499630, guid: cd66bc30bdea0bc4886595d06443dff4,
        type: 3}
      propertyPath: m_Enabled
      value: 0
      objectReference: {fileID: 0}
    - target: {fileID: 9059576409068206259, guid: cd66bc30bdea0bc4886595d06443dff4,
        type: 3}
      propertyPath: m_Enabled
      value: 1
      objectReference: {fileID: 0}
    m_RemovedComponents: []
  m_SourcePrefab: {fileID: 100100000, guid: cd66bc30bdea0bc4886595d06443dff4, type: 3}
--- !u!224 &1481583381 stripped
RectTransform:
  m_CorrespondingSourceObject: {fileID: 2489423680137607303, guid: cd66bc30bdea0bc4886595d06443dff4,
    type: 3}
  m_PrefabInstance: {fileID: 1481583380}
  m_PrefabAsset: {fileID: 0}
--- !u!1 &1481583382 stripped
GameObject:
  m_CorrespondingSourceObject: {fileID: 4937188935239999125, guid: cd66bc30bdea0bc4886595d06443dff4,
    type: 3}
  m_PrefabInstance: {fileID: 1481583380}
  m_PrefabAsset: {fileID: 0}
--- !u!1 &1812518943
GameObject:
  m_ObjectHideFlags: 0
  m_CorrespondingSourceObject: {fileID: 0}
  m_PrefabInstance: {fileID: 0}
  m_PrefabAsset: {fileID: 0}
  serializedVersion: 6
  m_Component:
  - component: {fileID: 1812518945}
  - component: {fileID: 1812518944}
  - component: {fileID: 1812518946}
  m_Layer: 0
  m_Name: UIPickMasterDeviceScene
  m_TagString: Untagged
  m_Icon: {fileID: 0}
  m_NavMeshLayer: 0
  m_StaticEditorFlags: 0
  m_IsActive: 1
--- !u!114 &1812518944
MonoBehaviour:
  m_ObjectHideFlags: 0
  m_CorrespondingSourceObject: {fileID: 0}
  m_PrefabInstance: {fileID: 0}
  m_PrefabAsset: {fileID: 0}
  m_GameObject: {fileID: 1812518943}
  m_Enabled: 1
  m_EditorHideFlags: 0
  m_Script: {fileID: 11500000, guid: 80b09faee9e77b14f8db91f8f9b5c4da, type: 3}
  m_Name: 
  m_EditorClassIdentifier: 
  btnDevicePrefab: {fileID: 7922415386700665245, guid: cd90018da116734469b47224e3f16c30,
    type: 3}
  btnDeviceContainer: {fileID: 207712233}
  nextScene: AddParticipantScene
  instruText: {fileID: 1342877900}
  btnReady: {fileID: 1481583382}
  notification: {fileID: 986750883}
  loadingBar: {fileID: 1957097216}
--- !u!4 &1812518945
Transform:
  m_ObjectHideFlags: 0
  m_CorrespondingSourceObject: {fileID: 0}
  m_PrefabInstance: {fileID: 0}
  m_PrefabAsset: {fileID: 0}
  m_GameObject: {fileID: 1812518943}
  m_LocalRotation: {x: 0, y: 0, z: 0, w: 1}
  m_LocalPosition: {x: 816.032, y: 131.79878, z: 4.6257944}
  m_LocalScale: {x: 1, y: 1, z: 1}
  m_Children: []
  m_Father: {fileID: 0}
  m_RootOrder: 4
  m_LocalEulerAnglesHint: {x: 0, y: 0, z: 0}
--- !u!114 &1812518946
MonoBehaviour:
  m_ObjectHideFlags: 0
  m_CorrespondingSourceObject: {fileID: 0}
  m_PrefabInstance: {fileID: 0}
  m_PrefabAsset: {fileID: 0}
  m_GameObject: {fileID: 1812518943}
  m_Enabled: 1
  m_EditorHideFlags: 0
  m_Script: {fileID: 11500000, guid: aa584fbee541324448dd18d8409c7a41, type: 3}
  m_Name: 
  m_EditorClassIdentifier: 
  ObservedComponentsFoldoutOpen: 1
  Group: 0
  prefixField: -1
  Synchronization: 0
  OwnershipTransfer: 0
  ObservedComponents:
  - {fileID: 0}
  viewIdField: 2
  InstantiationId: 0
  isRuntimeInstantiated: 0
--- !u!1 &1957097216
GameObject:
  m_ObjectHideFlags: 0
  m_CorrespondingSourceObject: {fileID: 0}
  m_PrefabInstance: {fileID: 0}
  m_PrefabAsset: {fileID: 0}
  serializedVersion: 6
  m_Component:
  - component: {fileID: 1957097217}
  - component: {fileID: 1957097220}
  - component: {fileID: 1957097219}
  - component: {fileID: 1957097218}
  m_Layer: 5
  m_Name: LoadingBar
  m_TagString: Untagged
  m_Icon: {fileID: 0}
  m_NavMeshLayer: 0
  m_StaticEditorFlags: 0
  m_IsActive: 0
--- !u!224 &1957097217
RectTransform:
  m_ObjectHideFlags: 0
  m_CorrespondingSourceObject: {fileID: 0}
  m_PrefabInstance: {fileID: 0}
  m_PrefabAsset: {fileID: 0}
  m_GameObject: {fileID: 1957097216}
  m_LocalRotation: {x: 0, y: 0, z: 0, w: 1}
  m_LocalPosition: {x: 0, y: 0, z: 0}
  m_LocalScale: {x: 1, y: 1, z: 1}
  m_Children:
  - {fileID: 391570700}
  - {fileID: 965710813}
  m_Father: {fileID: 542363732}
  m_RootOrder: 3
  m_LocalEulerAnglesHint: {x: 0, y: 0, z: 0}
  m_AnchorMin: {x: 0.5, y: 0.5}
  m_AnchorMax: {x: 0.5, y: 0.5}
  m_AnchoredPosition: {x: -657, y: -381.15}
  m_SizeDelta: {x: 82.5, y: 82.5}
  m_Pivot: {x: 0.49999982, y: 0.50000006}
--- !u!95 &1957097218
Animator:
  serializedVersion: 3
  m_ObjectHideFlags: 0
  m_CorrespondingSourceObject: {fileID: 0}
  m_PrefabInstance: {fileID: 0}
  m_PrefabAsset: {fileID: 0}
  m_GameObject: {fileID: 1957097216}
  m_Enabled: 1
  m_Avatar: {fileID: 0}
  m_Controller: {fileID: 9100000, guid: 671d36c09c7e9d043bf995530c38c3c8, type: 2}
  m_CullingMode: 0
  m_UpdateMode: 2
  m_ApplyRootMotion: 0
  m_LinearVelocityBlending: 0
  m_WarningMessage: 
  m_HasTransformHierarchy: 1
  m_AllowConstantClipSamplingOptimization: 1
  m_KeepAnimatorControllerStateOnDisable: 0
--- !u!114 &1957097219
MonoBehaviour:
  m_ObjectHideFlags: 0
  m_CorrespondingSourceObject: {fileID: 0}
  m_PrefabInstance: {fileID: 0}
  m_PrefabAsset: {fileID: 0}
  m_GameObject: {fileID: 1957097216}
  m_Enabled: 1
  m_EditorHideFlags: 0
  m_Script: {fileID: 11500000, guid: be5fad699a120164d91f8b2f69924ad1, type: 3}
  m_Name: 
  m_EditorClassIdentifier: 
  UIManagerAsset: {fileID: 11400000, guid: 2a619a9609984be49b53b928dd94e61b, type: 2}
  hasBackground: 1
  useRegularBackground: 0
  bar: {fileID: 965710814}
  background: {fileID: 391570701}
--- !u!222 &1957097220
CanvasRenderer:
  m_ObjectHideFlags: 0
  m_CorrespondingSourceObject: {fileID: 0}
  m_PrefabInstance: {fileID: 0}
  m_PrefabAsset: {fileID: 0}
  m_GameObject: {fileID: 1957097216}
  m_CullTransparentMesh: 0
--- !u!1001 &5537773605379132898
PrefabInstance:
  m_ObjectHideFlags: 0
  serializedVersion: 2
  m_Modification:
    m_TransformParent: {fileID: 542363732}
    m_Modifications:
    - target: {fileID: 6412103567039053066, guid: 1987d6811d4a9604a9ea40314b4489c5,
        type: 3}
      propertyPath: m_Name
      value: ListDevice
      objectReference: {fileID: 0}
    - target: {fileID: 6412103567039053067, guid: 1987d6811d4a9604a9ea40314b4489c5,
        type: 3}
      propertyPath: m_LocalPosition.x
      value: 0
      objectReference: {fileID: 0}
    - target: {fileID: 6412103567039053067, guid: 1987d6811d4a9604a9ea40314b4489c5,
        type: 3}
      propertyPath: m_LocalPosition.y
      value: 0
      objectReference: {fileID: 0}
    - target: {fileID: 6412103567039053067, guid: 1987d6811d4a9604a9ea40314b4489c5,
        type: 3}
      propertyPath: m_LocalPosition.z
      value: 0
      objectReference: {fileID: 0}
    - target: {fileID: 6412103567039053067, guid: 1987d6811d4a9604a9ea40314b4489c5,
        type: 3}
      propertyPath: m_LocalRotation.x
      value: 0
      objectReference: {fileID: 0}
    - target: {fileID: 6412103567039053067, guid: 1987d6811d4a9604a9ea40314b4489c5,
        type: 3}
      propertyPath: m_LocalRotation.y
      value: 0
      objectReference: {fileID: 0}
    - target: {fileID: 6412103567039053067, guid: 1987d6811d4a9604a9ea40314b4489c5,
        type: 3}
      propertyPath: m_LocalRotation.z
      value: 0
      objectReference: {fileID: 0}
    - target: {fileID: 6412103567039053067, guid: 1987d6811d4a9604a9ea40314b4489c5,
        type: 3}
      propertyPath: m_LocalRotation.w
      value: 1
      objectReference: {fileID: 0}
    - target: {fileID: 6412103567039053067, guid: 1987d6811d4a9604a9ea40314b4489c5,
        type: 3}
      propertyPath: m_RootOrder
      value: 2
      objectReference: {fileID: 0}
    - target: {fileID: 6412103567039053067, guid: 1987d6811d4a9604a9ea40314b4489c5,
        type: 3}
      propertyPath: m_LocalEulerAnglesHint.x
      value: 0
      objectReference: {fileID: 0}
    - target: {fileID: 6412103567039053067, guid: 1987d6811d4a9604a9ea40314b4489c5,
        type: 3}
      propertyPath: m_LocalEulerAnglesHint.y
      value: 0
      objectReference: {fileID: 0}
    - target: {fileID: 6412103567039053067, guid: 1987d6811d4a9604a9ea40314b4489c5,
        type: 3}
      propertyPath: m_LocalEulerAnglesHint.z
      value: 0
      objectReference: {fileID: 0}
    - target: {fileID: 6412103567039053067, guid: 1987d6811d4a9604a9ea40314b4489c5,
        type: 3}
      propertyPath: m_AnchoredPosition.x
      value: 0.000011444
      objectReference: {fileID: 0}
    - target: {fileID: 6412103567039053067, guid: 1987d6811d4a9604a9ea40314b4489c5,
        type: 3}
      propertyPath: m_AnchoredPosition.y
      value: -48
      objectReference: {fileID: 0}
    - target: {fileID: 6412103567039053067, guid: 1987d6811d4a9604a9ea40314b4489c5,
        type: 3}
      propertyPath: m_SizeDelta.x
      value: 1082.3
      objectReference: {fileID: 0}
    - target: {fileID: 6412103567039053067, guid: 1987d6811d4a9604a9ea40314b4489c5,
        type: 3}
      propertyPath: m_SizeDelta.y
      value: 583.8
      objectReference: {fileID: 0}
    - target: {fileID: 6412103567039053067, guid: 1987d6811d4a9604a9ea40314b4489c5,
        type: 3}
      propertyPath: m_AnchorMin.x
      value: 0.5
      objectReference: {fileID: 0}
    - target: {fileID: 6412103567039053067, guid: 1987d6811d4a9604a9ea40314b4489c5,
        type: 3}
      propertyPath: m_AnchorMin.y
      value: 0.5
      objectReference: {fileID: 0}
    - target: {fileID: 6412103567039053067, guid: 1987d6811d4a9604a9ea40314b4489c5,
        type: 3}
      propertyPath: m_AnchorMax.x
      value: 0.5
      objectReference: {fileID: 0}
    - target: {fileID: 6412103567039053067, guid: 1987d6811d4a9604a9ea40314b4489c5,
        type: 3}
      propertyPath: m_AnchorMax.y
      value: 0.5
      objectReference: {fileID: 0}
    - target: {fileID: 6412103567039053067, guid: 1987d6811d4a9604a9ea40314b4489c5,
        type: 3}
      propertyPath: m_Pivot.x
      value: 0.5
      objectReference: {fileID: 0}
    - target: {fileID: 6412103567039053067, guid: 1987d6811d4a9604a9ea40314b4489c5,
        type: 3}
      propertyPath: m_Pivot.y
      value: 0.5
      objectReference: {fileID: 0}
    - target: {fileID: 6412103567039053069, guid: 1987d6811d4a9604a9ea40314b4489c5,
        type: 3}
      propertyPath: m_Enabled
      value: 0
      objectReference: {fileID: 0}
    - target: {fileID: 6412103568100274561, guid: 1987d6811d4a9604a9ea40314b4489c5,
        type: 3}
      propertyPath: m_AnchoredPosition.y
      value: 0
      objectReference: {fileID: 0}
    - target: {fileID: 6412103568100274561, guid: 1987d6811d4a9604a9ea40314b4489c5,
        type: 3}
      propertyPath: m_SizeDelta.x
      value: 0
      objectReference: {fileID: 0}
    - target: {fileID: 6412103568100274561, guid: 1987d6811d4a9604a9ea40314b4489c5,
        type: 3}
      propertyPath: m_SizeDelta.y
      value: 0
      objectReference: {fileID: 0}
    - target: {fileID: 6412103568100274561, guid: 1987d6811d4a9604a9ea40314b4489c5,
        type: 3}
      propertyPath: m_AnchoredPosition.x
      value: -71
      objectReference: {fileID: 0}
    m_RemovedComponents: []
  m_SourcePrefab: {fileID: 100100000, guid: 1987d6811d4a9604a9ea40314b4489c5, type: 3}
--- !u!1001 &6198623367730910108
PrefabInstance:
  m_ObjectHideFlags: 0
  serializedVersion: 2
  m_Modification:
    m_TransformParent: {fileID: 542363732}
    m_Modifications:
    - target: {fileID: 6073242608763701512, guid: 350d6ca9afd2d744aa554aedef25b0da,
        type: 3}
      propertyPath: m_Name
      value: Instructions
      objectReference: {fileID: 0}
    - target: {fileID: 6073242608763701515, guid: 350d6ca9afd2d744aa554aedef25b0da,
        type: 3}
      propertyPath: m_LocalPosition.x
      value: 0
      objectReference: {fileID: 0}
    - target: {fileID: 6073242608763701515, guid: 350d6ca9afd2d744aa554aedef25b0da,
        type: 3}
      propertyPath: m_LocalPosition.y
      value: 0
      objectReference: {fileID: 0}
    - target: {fileID: 6073242608763701515, guid: 350d6ca9afd2d744aa554aedef25b0da,
        type: 3}
      propertyPath: m_LocalPosition.z
      value: 0
      objectReference: {fileID: 0}
    - target: {fileID: 6073242608763701515, guid: 350d6ca9afd2d744aa554aedef25b0da,
        type: 3}
      propertyPath: m_LocalRotation.x
      value: 0
      objectReference: {fileID: 0}
    - target: {fileID: 6073242608763701515, guid: 350d6ca9afd2d744aa554aedef25b0da,
        type: 3}
      propertyPath: m_LocalRotation.y
      value: 0
      objectReference: {fileID: 0}
    - target: {fileID: 6073242608763701515, guid: 350d6ca9afd2d744aa554aedef25b0da,
        type: 3}
      propertyPath: m_LocalRotation.z
      value: 0
      objectReference: {fileID: 0}
    - target: {fileID: 6073242608763701515, guid: 350d6ca9afd2d744aa554aedef25b0da,
        type: 3}
      propertyPath: m_LocalRotation.w
      value: 1
      objectReference: {fileID: 0}
    - target: {fileID: 6073242608763701515, guid: 350d6ca9afd2d744aa554aedef25b0da,
        type: 3}
      propertyPath: m_RootOrder
      value: 4
      objectReference: {fileID: 0}
    - target: {fileID: 6073242608763701515, guid: 350d6ca9afd2d744aa554aedef25b0da,
        type: 3}
      propertyPath: m_LocalEulerAnglesHint.x
      value: 0
      objectReference: {fileID: 0}
    - target: {fileID: 6073242608763701515, guid: 350d6ca9afd2d744aa554aedef25b0da,
        type: 3}
      propertyPath: m_LocalEulerAnglesHint.y
      value: 0
      objectReference: {fileID: 0}
    - target: {fileID: 6073242608763701515, guid: 350d6ca9afd2d744aa554aedef25b0da,
        type: 3}
      propertyPath: m_LocalEulerAnglesHint.z
      value: 0
      objectReference: {fileID: 0}
    - target: {fileID: 6073242608763701515, guid: 350d6ca9afd2d744aa554aedef25b0da,
        type: 3}
      propertyPath: m_AnchoredPosition.x
      value: 0.000030517
      objectReference: {fileID: 0}
    - target: {fileID: 6073242608763701515, guid: 350d6ca9afd2d744aa554aedef25b0da,
        type: 3}
      propertyPath: m_AnchoredPosition.y
      value: -411.9
      objectReference: {fileID: 0}
    - target: {fileID: 6073242608763701515, guid: 350d6ca9afd2d744aa554aedef25b0da,
        type: 3}
      propertyPath: m_SizeDelta.x
      value: 1082.3
      objectReference: {fileID: 0}
    - target: {fileID: 6073242608763701515, guid: 350d6ca9afd2d744aa554aedef25b0da,
        type: 3}
      propertyPath: m_SizeDelta.y
      value: 112
      objectReference: {fileID: 0}
    - target: {fileID: 6073242608763701515, guid: 350d6ca9afd2d744aa554aedef25b0da,
        type: 3}
      propertyPath: m_AnchorMin.x
      value: 0.5
      objectReference: {fileID: 0}
    - target: {fileID: 6073242608763701515, guid: 350d6ca9afd2d744aa554aedef25b0da,
        type: 3}
      propertyPath: m_AnchorMin.y
      value: 0.5
      objectReference: {fileID: 0}
    - target: {fileID: 6073242608763701515, guid: 350d6ca9afd2d744aa554aedef25b0da,
        type: 3}
      propertyPath: m_AnchorMax.x
      value: 0.5
      objectReference: {fileID: 0}
    - target: {fileID: 6073242608763701515, guid: 350d6ca9afd2d744aa554aedef25b0da,
        type: 3}
      propertyPath: m_AnchorMax.y
      value: 0.5
      objectReference: {fileID: 0}
    - target: {fileID: 6073242608763701515, guid: 350d6ca9afd2d744aa554aedef25b0da,
        type: 3}
      propertyPath: m_Pivot.x
      value: 0.5
      objectReference: {fileID: 0}
    - target: {fileID: 6073242608763701515, guid: 350d6ca9afd2d744aa554aedef25b0da,
        type: 3}
      propertyPath: m_Pivot.y
      value: 0.5
      objectReference: {fileID: 0}
    m_RemovedComponents: []
  m_SourcePrefab: {fileID: 100100000, guid: 350d6ca9afd2d744aa554aedef25b0da, type: 3}
--- !u!1001 &7869815679233269929
PrefabInstance:
  m_ObjectHideFlags: 0
  serializedVersion: 2
  m_Modification:
    m_TransformParent: {fileID: 542363732}
    m_Modifications:
    - target: {fileID: 1027227590245039633, guid: 3c49760521fad4cb385e68f08928e602,
        type: 3}
      propertyPath: m_LocalPosition.x
      value: 0
      objectReference: {fileID: 0}
    - target: {fileID: 1027227590245039633, guid: 3c49760521fad4cb385e68f08928e602,
        type: 3}
      propertyPath: m_LocalPosition.y
      value: 0
      objectReference: {fileID: 0}
    - target: {fileID: 1027227590245039633, guid: 3c49760521fad4cb385e68f08928e602,
        type: 3}
      propertyPath: m_LocalPosition.z
      value: 0
      objectReference: {fileID: 0}
    - target: {fileID: 1027227590245039633, guid: 3c49760521fad4cb385e68f08928e602,
        type: 3}
      propertyPath: m_LocalRotation.x
      value: 0
      objectReference: {fileID: 0}
    - target: {fileID: 1027227590245039633, guid: 3c49760521fad4cb385e68f08928e602,
        type: 3}
      propertyPath: m_LocalRotation.y
      value: 0
      objectReference: {fileID: 0}
    - target: {fileID: 1027227590245039633, guid: 3c49760521fad4cb385e68f08928e602,
        type: 3}
      propertyPath: m_LocalRotation.z
      value: 0
      objectReference: {fileID: 0}
    - target: {fileID: 1027227590245039633, guid: 3c49760521fad4cb385e68f08928e602,
        type: 3}
      propertyPath: m_LocalRotation.w
      value: 1
      objectReference: {fileID: 0}
    - target: {fileID: 1027227590245039633, guid: 3c49760521fad4cb385e68f08928e602,
        type: 3}
      propertyPath: m_RootOrder
      value: 1
      objectReference: {fileID: 0}
    - target: {fileID: 1027227590245039633, guid: 3c49760521fad4cb385e68f08928e602,
        type: 3}
      propertyPath: m_LocalEulerAnglesHint.x
      value: 0
      objectReference: {fileID: 0}
    - target: {fileID: 1027227590245039633, guid: 3c49760521fad4cb385e68f08928e602,
        type: 3}
      propertyPath: m_LocalEulerAnglesHint.y
      value: 0
      objectReference: {fileID: 0}
    - target: {fileID: 1027227590245039633, guid: 3c49760521fad4cb385e68f08928e602,
        type: 3}
      propertyPath: m_LocalEulerAnglesHint.z
      value: 0
      objectReference: {fileID: 0}
    - target: {fileID: 1027227590245039633, guid: 3c49760521fad4cb385e68f08928e602,
        type: 3}
      propertyPath: m_AnchoredPosition.x
      value: 0
      objectReference: {fileID: 0}
    - target: {fileID: 1027227590245039633, guid: 3c49760521fad4cb385e68f08928e602,
        type: 3}
      propertyPath: m_AnchoredPosition.y
      value: 0
      objectReference: {fileID: 0}
    - target: {fileID: 1027227590245039633, guid: 3c49760521fad4cb385e68f08928e602,
        type: 3}
      propertyPath: m_SizeDelta.x
      value: 100
      objectReference: {fileID: 0}
    - target: {fileID: 1027227590245039633, guid: 3c49760521fad4cb385e68f08928e602,
        type: 3}
      propertyPath: m_SizeDelta.y
      value: 100
      objectReference: {fileID: 0}
    - target: {fileID: 1027227590245039633, guid: 3c49760521fad4cb385e68f08928e602,
        type: 3}
      propertyPath: m_AnchorMin.x
      value: 0.5
      objectReference: {fileID: 0}
    - target: {fileID: 1027227590245039633, guid: 3c49760521fad4cb385e68f08928e602,
        type: 3}
      propertyPath: m_AnchorMin.y
      value: 0.5
      objectReference: {fileID: 0}
    - target: {fileID: 1027227590245039633, guid: 3c49760521fad4cb385e68f08928e602,
        type: 3}
      propertyPath: m_AnchorMax.x
      value: 0.5
      objectReference: {fileID: 0}
    - target: {fileID: 1027227590245039633, guid: 3c49760521fad4cb385e68f08928e602,
        type: 3}
      propertyPath: m_AnchorMax.y
      value: 0.5
      objectReference: {fileID: 0}
    - target: {fileID: 1027227590245039633, guid: 3c49760521fad4cb385e68f08928e602,
        type: 3}
      propertyPath: m_Pivot.x
      value: 0.5
      objectReference: {fileID: 0}
    - target: {fileID: 1027227590245039633, guid: 3c49760521fad4cb385e68f08928e602,
        type: 3}
      propertyPath: m_Pivot.y
      value: 0.5
      objectReference: {fileID: 0}
    - target: {fileID: 2341244304772264547, guid: 3c49760521fad4cb385e68f08928e602,
        type: 3}
      propertyPath: m_Name
      value: Header
      objectReference: {fileID: 0}
    - target: {fileID: 3603762751536061471, guid: 3c49760521fad4cb385e68f08928e602,
        type: 3}
      propertyPath: m_OnClick.m_PersistentCalls.m_Calls.Array.size
      value: 1
      objectReference: {fileID: 0}
    - target: {fileID: 3603762751536061471, guid: 3c49760521fad4cb385e68f08928e602,
        type: 3}
      propertyPath: m_OnClick.m_PersistentCalls.m_Calls.Array.data[0].m_Mode
      value: 5
      objectReference: {fileID: 0}
    - target: {fileID: 3603762751536061471, guid: 3c49760521fad4cb385e68f08928e602,
        type: 3}
      propertyPath: m_OnClick.m_PersistentCalls.m_Calls.Array.data[0].m_CallState
      value: 2
      objectReference: {fileID: 0}
    - target: {fileID: 3603762751536061471, guid: 3c49760521fad4cb385e68f08928e602,
        type: 3}
      propertyPath: m_OnClick.m_PersistentCalls.m_Calls.Array.data[0].m_Target
      value: 
      objectReference: {fileID: 131028698}
    - target: {fileID: 3603762751536061471, guid: 3c49760521fad4cb385e68f08928e602,
        type: 3}
      propertyPath: m_OnClick.m_PersistentCalls.m_Calls.Array.data[0].m_MethodName
      value: LoadScene
      objectReference: {fileID: 0}
    - target: {fileID: 3603762751536061471, guid: 3c49760521fad4cb385e68f08928e602,
        type: 3}
      propertyPath: m_OnClick.m_PersistentCalls.m_Calls.Array.data[0].m_Arguments.m_ObjectArgumentAssemblyTypeName
      value: UnityEngine.Object, UnityEngine
      objectReference: {fileID: 0}
    - target: {fileID: 3603762751536061471, guid: 3c49760521fad4cb385e68f08928e602,
        type: 3}
      propertyPath: m_OnClick.m_PersistentCalls.m_Calls.Array.data[0].m_Arguments.m_StringArgument
      value: PickScenarioScene
      objectReference: {fileID: 0}
    - target: {fileID: 5598047941672463158, guid: 3c49760521fad4cb385e68f08928e602,
        type: 3}
      propertyPath: m_Sprite
      value: 
      objectReference: {fileID: 21300000, guid: 7fe25eab77fa99540b56a60f0d40707a,
        type: 3}
    - target: {fileID: 7869815680090581445, guid: 3c49760521fad4cb385e68f08928e602,
        type: 3}
      propertyPath: m_OnClick.m_PersistentCalls.m_Calls.Array.data[0].m_Target
      value: 
      objectReference: {fileID: 131028698}
    m_RemovedComponents: []
  m_SourcePrefab: {fileID: 100100000, guid: 3c49760521fad4cb385e68f08928e602, type: 3}
--- !u!224 &7869815679233269930 stripped
RectTransform:
  m_CorrespondingSourceObject: {fileID: 1027227590245039633, guid: 3c49760521fad4cb385e68f08928e602,
    type: 3}
  m_PrefabInstance: {fileID: 7869815679233269929}
  m_PrefabAsset: {fileID: 0}
